<?xml version="1.0" encoding="UTF-8" standalone="no"?>
<svg
   xmlns:dc="http://purl.org/dc/elements/1.1/"
   xmlns:cc="http://creativecommons.org/ns#"
   xmlns:rdf="http://www.w3.org/1999/02/22-rdf-syntax-ns#"
   xmlns:svg="http://www.w3.org/2000/svg"
   xmlns="http://www.w3.org/2000/svg"
   xmlns:sodipodi="http://sodipodi.sourceforge.net/DTD/sodipodi-0.dtd"
   xmlns:inkscape="http://www.inkscape.org/namespaces/inkscape"
   width="100%"
   height="100%"
   viewBox="0 0 102 67"
   version="1.1"
   xml:space="preserve"
   style="fill-rule:evenodd;clip-rule:evenodd;stroke-linejoin:round;stroke-miterlimit:1.41421;"
   id="svg6"
   sodipodi:docname="logo_industries_white.svg"
   inkscape:version="0.92.3 (unknown)"><metadata
     id="metadata12"><rdf:RDF><cc:Work
         rdf:about=""><dc:format>image/svg+xml</dc:format><dc:type
           rdf:resource="http://purl.org/dc/dcmitype/StillImage" /><dc:title></dc:title></cc:Work></rdf:RDF></metadata><defs
     id="defs10" /><sodipodi:namedview
     pagecolor="#ffffff"
     bordercolor="#666666"
     borderopacity="1"
     objecttolerance="10"
     gridtolerance="10"
     guidetolerance="10"
     inkscape:pageopacity="0"
     inkscape:pageshadow="2"
     inkscape:window-width="1600"
     inkscape:window-height="827"
     id="namedview8"
     showgrid="false"
     inkscape:zoom="3.5223881"
     inkscape:cx="51"
     inkscape:cy="33.5"
     inkscape:window-x="0"
     inkscape:window-y="0"
     inkscape:window-maximized="1"
     inkscape:current-layer="svg6" /><path
     id="path3773"
     d="M29.2,19.904c2.87,-9.169 11.438,-15.831 21.55,-15.831c10.112,0 18.68,6.662 21.55,15.831l0,0l0,0.001c0.074,0.235 0.143,0.471 0.209,0.709c3.203,9.709 16.624,5.953 16.624,5.953l8.866,22.902l-33.671,13.035l-5.692,-14.704l-0.024,0.009l-3.15,-8.21c0.239,-0.092 0.474,-0.19 0.706,-0.295c1.037,-0.505 1.94,-1.063 2.724,-1.66c2.139,-1.691 3.708,-4.015 4.475,-6.634c1.1,-4.247 -0.253,-8.122 -0.291,-8.231c-1.867,-4.999 -6.709,-8.599 -12.326,-8.599c-5.617,0 -10.459,3.6 -12.326,8.599c-0.038,0.108 -1.391,3.984 -0.291,8.231c0.767,2.619 2.336,4.943 4.475,6.634c0.784,0.597 1.687,1.155 2.724,1.66c0.232,0.105 0.467,0.203 0.706,0.295l-0.01,0.027c0,0 -3.14,8.183 -3.14,8.183l-0.024,-0.009l-5.692,14.704l-33.671,-13.035l8.866,-22.902c0,0 13.421,3.756 16.624,-5.953c0.066,-0.238 0.135,-0.474 0.209,-0.709l0,-0.001l0,0Z"
     style="fill-rule:nonzero;fill:#ffffff;fill-opacity:1" /><circle
     id="path901"
     cx="50.75"
     cy="27.321"
     r="10"
     style="fill:#ffffff;fill-opacity:1" /><path
     d="M49.066,40.362c0.552,0.07 1.114,0.107 1.684,0.107c0.57,0 1.132,-0.037 1.684,-0.107l4.386,11.429l4.174,10.713l-20.498,0l4.151,-10.725l4.275,-11.043l0.144,-0.374Zm-3.253,-0.175l-2.925,7.622c0,0 -5.716,14.695 -5.716,14.695l-0.06,-0.024l8.701,-22.293Zm10.116,0.618l8.459,21.675l-0.06,0.024l-5.692,-14.704l-2.707,-6.995Z"
     style="fill:#ffffff;fill-opacity:1"
     id="path4" /></svg>